{"tags":[{"name":" abstract","count_objects":"11","id":"420562849"},{"name":" metalwork","count_objects":"5","id":"421206173"},{"name":" sustainabilty","count_objects":"7","id":"85044665"},{"name":"3D","count_objects":"8","id":"68798921"},{"name":"3D objects","count_objects":"1","id":"1159194409"},{"name":"3-D printed","count_objects":"5","id":"1158855555"},{"name":"3D printing","count_objects":"50","id":"68800025"},{"name":"abacus","count_objects":"3","id":"68800117"},{"name":"abnormal motion","count_objects":"1","id":"1159194413"},{"name":"abolitionists","count_objects":"4","id":"68799649"},{"name":"Abraham and Isaac","count_objects":"1","id":"68801929"},{"name":"Abraham Lincoln","count_objects":"1","id":"68801027"},{"name":"abstrac","count_objects":"1","id":"102123463"},{"name":"abstract","count_objects":"68","id":"85020611"},{"name":"abstraction","count_objects":"133","id":"68797429"},{"name":"abundance","count_objects":"3","id":"1041521285"},{"name":"acanthus","count_objects":"45","id":"68799217"},{"name":"accent","count_objects":"2","id":"68799383"},{"name":"accessability","count_objects":"1","id":"1158861097"},{"name":"accessibility ","count_objects":"5","id":"1158861121"},{"name":"accessible","count_objects":"10","id":"85044835"},{"name":"accessories","count_objects":"127","id":"68798355"},{"name":"accessory","count_objects":"17","id":"102123457"},{"name":"accordion","count_objects":"2","id":"68798481"},{"name":"accountants","count_objects":"3","id":"68800637"},{"name":"accoutrement","count_objects":"1","id":"420570617"},{"name":"achromatic color","count_objects":"3","id":"1158794573"},{"name":"acorns","count_objects":"4","id":"69164265"},{"name":"acoustic","count_objects":"7","id":"68800387"},{"name":"acropolis","count_objects":"2","id":"68798107"},{"name":"acrylic","count_objects":"1","id":"353589063"},{"name":"activist poster","count_objects":"27","id":"68797893"},{"name":"activists","count_objects":"3","id":"68797891"},{"name":"activity","count_objects":"3","id":"68797733"},{"name":"Adam and Eve","count_objects":"2","id":"68801635"},{"name":"adaptable ","count_objects":"2","id":"1108725083"},{"name":"adaptation","count_objects":"4","id":"1158785243"},{"name":"adaptive","count_objects":"3","id":"68801185"},{"name":"adjustable","count_objects":"4","id":"68801153"},{"name":"adornment","count_objects":"92","id":"68797631"},{"name":"adventure","count_objects":"4","id":"102312301"},{"name":"advertisement","count_objects":"38","id":"68800089"},{"name":"advertising","count_objects":"267","id":"68797167"},{"name":"advocacy","count_objects":"2","id":"68800565"},{"name":"aerial","count_objects":"1","id":"1159194365"},{"name":"aerodynamic","count_objects":"1","id":"404012499"},{"name":"aesthe","count_objects":"1","id":"420570597"},{"name":"Aesthetic","count_objects":"3","id":"68802153"},{"name":"affection","count_objects":"1","id":"1108728247"},{"name":"affordable","count_objects":"13","id":"68798749"},{"name":"affordance","count_objects":"1","id":"68801881"},{"name":"Africa","count_objects":"3","id":"68800853"},{"name":"African","count_objects":"63","id":"84991985"},{"name":"african motifs","count_objects":"2","id":"1108954631"},{"name":"after image","count_objects":"1","id":"68801289"},{"name":"afterlife","count_objects":"1","id":"1108728257"},{"name":"aging","count_objects":"10","id":"337277139"},{"name":"agriculture","count_objects":"21","id":"68799755"},{"name":"AIDS","count_objects":"4","id":"68801145"},{"name":"air pollution","count_objects":"3","id":"1159194361"},{"name":"airlines","count_objects":"14","id":"68797169"},{"name":"airplane","count_objects":"10","id":"69164429"},{"name":"airplanes","count_objects":"15","id":"68797299"},{"name":"airports","count_objects":"1","id":"69164375"},{"name":"Akan","count_objects":"4","id":"84992043"},{"name":"album","count_objects":"11","id":"1108832275"},{"name":"album cover","count_objects":"1","id":"1159194543"},{"name":"alcohol","count_objects":"20","id":"1126115723"},{"name":"alcohol consumers","count_objects":"2","id":"69164511"},{"name":"alcoves","count_objects":"2","id":"68800865"},{"name":"Alexander the Great","count_objects":"1","id":"68797315"},{"name":"algorithm","count_objects":"3","id":"1158785195"},{"name":"allegories","count_objects":"20","id":"102123413"},{"name":"allegory","count_objects":"38","id":"68796979"},{"name":"All-over","count_objects":"42","id":"68798523"},{"name":"allover ","count_objects":"1","id":"102123401"},{"name":"alphabet","count_objects":"37","id":"68798521"},{"name":"altar frontal","count_objects":"1","id":"68798651"},{"name":"altars","count_objects":"15","id":"68798193"},{"name":"alteration","count_objects":"1","id":"1159194419"},{"name":"alternating","count_objects":"5","id":"68798129"},{"name":"aluminium","count_objects":"1","id":"1158785305"},{"name":"aluminum","count_objects":"39","id":"68802217"},{"name":"Alzheimer\u2019s ","count_objects":"1","id":"1159194499"},{"name":"amateurs","count_objects":"2","id":"68801047"},{"name":"Amazon","count_objects":"1","id":"1159194433"},{"name":"amber","count_objects":"1","id":"1108915077"},{"name":"ambition","count_objects":"1","id":"1141959857"},{"name":"American West","count_objects":"7","id":"68800495"},{"name":"amoeba","count_objects":"4","id":"68799863"},{"name":"amorini","count_objects":"1","id":"1159157023"},{"name":"amorphous","count_objects":"2","id":"68799389"},{"name":"amphora","count_objects":"1","id":"689630505"},{"name":"amplify","count_objects":"7","id":"69164197"},{"name":"amusement","count_objects":"9","id":"1126128563"},{"name":"analogous color","count_objects":"36","id":"1158792355"},{"name":"anatomy","count_objects":"1","id":"68800803"},{"name":"ancestry","count_objects":"2","id":"68800663"},{"name":"ancient","count_objects":"4","id":"420777601"},{"name":"anemone","count_objects":"1","id":"102116829"}],"total":3681,"page":1,"per_page":100,"pages":37,"stat":"ok","event_publishing_state":"ok"}